[gd_scene load_steps=7 format=2]

[ext_resource path="res://Scenes/FirstLevel/FirstLevel.tscn" type="PackedScene" id=1]
[ext_resource path="res://Actors/Player/Player.tscn" type="PackedScene" id=2]
[ext_resource path="res://Assets/reticle.png" type="Texture" id=3]
[ext_resource path="res://Scenes/Reticle.gd" type="Script" id=4]
[ext_resource path="res://Scenes/Camera2D.gd" type="Script" id=5]
[ext_resource path="res://Actors/Enemy/Enemy.tscn" type="PackedScene" id=6]

[node name="World" type="Node2D"]

[node name="FirstLevel" parent="." instance=ExtResource( 1 )]

[node name="Player" parent="." instance=ExtResource( 2 )]
position = Vector2( 178.736, 465.48 )

[node name="Camera2D" type="Camera2D" parent="Player"]
visible = false
current = true
smoothing_enabled = true
drag_margin_bottom = 0.23
editor_draw_limits = true
editor_draw_drag_margin = true
script = ExtResource( 5 )

[node name="Reticle" type="Sprite" parent="."]
position = Vector2( -345.66, 364.627 )
scale = Vector2( 0.5, 0.5 )
texture = ExtResource( 3 )
script = ExtResource( 4 )

[node name="Enemy" parent="." instance=ExtResource( 6 )]
position = Vector2( 782.854, 289.36 )

[node name="Enemy2" parent="." instance=ExtResource( 6 )]
position = Vector2( 595.627, 496.785 )

[node name="CanvasLayer" type="CanvasLayer" parent="."]

[node name="ColorRect" type="ColorRect" parent="CanvasLayer"]
margin_left = 154.627
margin_top = 548.24
margin_right = 873.627
margin_bottom = 579.24
__meta__ = {
"_edit_use_anchors_": false
}
