[gd_scene load_steps=9 format=2]

[ext_resource path="res://Assets/robot_demo.png" type="Texture" id=1]
[ext_resource path="res://Actors/Player/Player.gd" type="Script" id=2]
[ext_resource path="res://Actors/Player/SpellShooter.gd" type="Script" id=3]

[sub_resource type="CapsuleShape2D" id=6]
custom_solver_bias = 0.092
radius = 25.8556
height = 26.7579

[sub_resource type="Animation" id=2]
resource_name = "falling"
length = 0.5
step = 0.25
tracks/0/type = "value"
tracks/0/path = NodePath("Sprite:frame")
tracks/0/interp = 1
tracks/0/loop_wrap = true
tracks/0/imported = false
tracks/0/enabled = true
tracks/0/keys = {
"times": PoolRealArray( 0 ),
"transitions": PoolRealArray( 1 ),
"update": 1,
"values": [ 21 ]
}

[sub_resource type="Animation" id=3]
resource_name = "jumping"
length = 0.5
step = 0.2
tracks/0/type = "value"
tracks/0/path = NodePath("Sprite:frame")
tracks/0/interp = 1
tracks/0/loop_wrap = true
tracks/0/imported = false
tracks/0/enabled = true
tracks/0/keys = {
"times": PoolRealArray( 0, 0.2 ),
"transitions": PoolRealArray( 1, 1 ),
"update": 1,
"values": [ 23, 24 ]
}

[sub_resource type="Animation" id=4]
length = 5.0
loop = true
step = 0.05
tracks/0/type = "value"
tracks/0/path = NodePath("Sprite:frame")
tracks/0/interp = 1
tracks/0/loop_wrap = true
tracks/0/imported = false
tracks/0/enabled = true
tracks/0/keys = {
"times": PoolRealArray( 0, 0.05, 0.15, 0.25 ),
"transitions": PoolRealArray( 1, 1, 1, 1 ),
"update": 1,
"values": [ 16, 17, 18, 16 ]
}

[sub_resource type="Animation" id=5]
loop = true
step = 0.2
tracks/0/type = "value"
tracks/0/path = NodePath("Sprite:frame")
tracks/0/interp = 0
tracks/0/loop_wrap = true
tracks/0/imported = false
tracks/0/enabled = true
tracks/0/keys = {
"times": PoolRealArray( 0, 0.2, 0.4, 0.6, 0.8 ),
"transitions": PoolRealArray( 1, 1, 1, 1, 1 ),
"update": 1,
"values": [ 0, 1, 2, 3, 4 ]
}

[node name="Player" type="KinematicBody2D"]
collision_layer = 2
collision_mask = 9
script = ExtResource( 2 )

[node name="CollisionShape2D" type="CollisionShape2D" parent="."]
shape = SubResource( 6 )

[node name="Sprite" type="Sprite" parent="."]
position = Vector2( 4.76837e-07, -4.76837e-07 )
scale = Vector2( 1.24392, 1.343 )
texture = ExtResource( 1 )
vframes = 2
hframes = 16
frame = 21

[node name="Anim" type="AnimationPlayer" parent="."]
anims/falling = SubResource( 2 )
anims/jumping = SubResource( 3 )
anims/standing = SubResource( 4 )
anims/walking = SubResource( 5 )

[node name="SpellShooter" type="Node" parent="."]
script = ExtResource( 3 )
